<svg width="12" height="11" viewBox="0 0 12 11" fill="none" xmlns="http://www.w3.org/2000/svg">
<path d="M5.67405 1V10.3333M5.67405 10.3333L10.3407 5.66667M5.67405 10.3333L1.00739 5.66667" stroke="#0000ff" stroke-width="1.33333" stroke-linecap="round" stroke-linejoin="round"/>
</svg>
